[gd_scene format=2]

[node name="Title" type="Label"]
anchor_left = 0.5
anchor_right = 0.5
margin_left = -256.0
margin_right = 256.0
margin_bottom = 88.0
custom_colors/font_color = Color( 0, 0, 0, 1 )
align = 1
valign = 1
