[gd_resource type="DynamicFont" load_steps=2 format=2]

[ext_resource path="res://fonts/BRLNSR.TTF" type="DynamicFontData" id=1]

[resource]
size = 30
outline_color = Color( 0.137255, 0.760784, 0.352941, 1 )
use_mipmaps = true
use_filter = true
font_data = ExtResource( 1 )
