[gd_resource type="StyleBoxFlat" format=2]

[resource]
bg_color = Color( 0.188235, 0.227451, 0.203922, 1 )
corner_radius_top_left = 10
corner_radius_top_right = 10
corner_radius_bottom_right = 10
corner_radius_bottom_left = 10
